git://github.com/CyC2018/CS-Notes.git 1
git://github.com/Snailclimb/JavaGuide.git 2
git://github.com/iluwatar/java-design-patterns.git 3
git://github.com/elastic/elasticsearch.git 4
git://github.com/MisterBooo/LeetCodeAnimation.git 5
git://github.com/spring-projects/spring-boot.git 6
git://github.com/ReactiveX/RxJava.git 7
git://github.com/kdn251/interviews.git 8
git://github.com/square/okhttp.git 9
git://github.com/doocs/advanced-java.git 10
git://github.com/google/guava.git 11
git://github.com/square/retrofit.git 12
git://github.com/spring-projects/spring-framework.git 13
git://github.com/apache/dubbo.git 14
git://github.com/PhilJay/MPAndroidChart.git 15
git://github.com/bumptech/glide.git 16
git://github.com/airbnb/lottie-android.git 17
git://github.com/macrozheng/mall.git 18
git://github.com/Blankj/AndroidUtilCode.git 19
git://github.com/proxyee-down-org/proxyee-down.git 20
git://github.com/JakeWharton/butterknife.git 21
git://github.com/zxing/zxing.git 22
git://github.com/crossoverJie/JCSprout.git 23
git://github.com/greenrobot/EventBus.git 24
git://github.com/netty/netty.git 25
git://github.com/skylot/jadx.git 26
git://github.com/TheAlgorithms/Java.git 27
git://github.com/alibaba/fastjson.git 28
git://github.com/ityouknow/spring-boot-examples.git 29
git://github.com/alibaba/druid.git 30
git://github.com/scwang90/SmartRefreshLayout.git 31
git://github.com/CymChad/BaseRecyclerViewAdapterHelper.git 32
git://github.com/Netflix/Hystrix.git 33
git://github.com/ctripcorp/apollo.git 34
git://github.com/ReactiveX/RxAndroid.git 35
git://github.com/NationalSecurityAgency/ghidra.git 36
git://github.com/eugenp/tutorials.git 37
git://github.com/alibaba/arthas.git 38
git://github.com/square/picasso.git 39
git://github.com/hankcs/HanLP.git 40
git://github.com/google/gson.git 41
git://github.com/nostra13/Android-Universal-Image-Loader.git 42
git://github.com/SeleniumHQ/selenium.git 43
git://github.com/libgdx/libgdx.git 44
git://github.com/chrisbanes/PhotoView.git 45
git://github.com/facebook/fresco.git 46
git://github.com/shuzheng/zheng.git 47
git://github.com/Tencent/tinker.git 48
git://github.com/google/ExoPlayer.git 49
git://github.com/jenkinsci/jenkins.git 50
git://github.com/apache/kafka.git 51
git://github.com/android10/Android-CleanArchitecture.git 52
git://github.com/bazelbuild/bazel.git 53
git://github.com/lgvalle/Material-Animations.git 54
git://github.com/seata/seata.git 55
git://github.com/DrKLO/Telegram.git 56
git://github.com/hdodenhof/CircleImageView.git 57
git://github.com/CarGuo/GSYVideoPlayer.git 58
git://github.com/winterbe/java8-tutorial.git 59
git://github.com/mybatis/mybatis-3.git 60
git://github.com/react-native-community/lottie-react-native.git 61
git://github.com/signalapp/Signal-Android.git 62
git://github.com/dianping/cat.git 63
git://github.com/lenve/vhr.git 64
git://github.com/EnterpriseQualityCoding/FizzBuzzEnterpriseEdition.git 65
git://github.com/openzipkin/zipkin.git 66
git://github.com/didi/DoraemonKit.git 67
git://github.com/orhanobut/logger.git 68
git://github.com/greenrobot/greenDAO.git 69
git://github.com/JeffLi1993/springboot-learning-example.git 70
git://github.com/alibaba/canal.git 71
git://github.com/brettwooldridge/HikariCP.git 72
git://github.com/facebook/stetho.git 73
git://github.com/qiurunze123/miaosha.git 74
git://github.com/daimajia/AndroidSwipeLayout.git 75
git://github.com/alibaba/easyexcel.git 76
git://github.com/apache/skywalking.git 77
git://github.com/LMAX-Exchange/disruptor.git 78
git://github.com/redisson/redisson.git 79
git://github.com/forezp/SpringCloudLearning.git 80
git://github.com/apache/flink.git 81
git://github.com/eclipse/deeplearning4j.git 82
git://github.com/xuxueli/xxl-job.git 83
git://github.com/dbeaver/dbeaver.git 84
git://github.com/oracle/graal.git 85
git://github.com/jfeinstein10/SlidingMenu.git 86
git://github.com/alibaba/ARouter.git 87
git://github.com/Bigkoo/Android-PickerView.git 88
git://github.com/Curzibn/Luban.git 89
git://github.com/daimajia/AndroidViewAnimations.git 90
git://github.com/wix/react-native-navigation.git 91
git://github.com/wuyouzhuguli/SpringAll.git 92
git://github.com/androidannotations/androidannotations.git 93
git://github.com/realm/realm-java.git 94
git://github.com/Konloch/bytecode-viewer.git 95
git://github.com/alibaba/spring-cloud-alibaba.git 96
git://github.com/halo-dev/halo.git 97
git://github.com/zhihu/Matisse.git 98
git://github.com/eclipse-vertx/vert.x.git 99
git://github.com/android-async-http/android-async-http.git 100
git://github.com/Yalantis/uCrop.git 101
git://github.com/tbruyelle/RxPermissions.git 102
git://github.com/YoKeyword/Fragmentation.git 103
git://github.com/iBotPeaches/Apktool.git 104
git://github.com/youth5201314/banner.git 105
git://github.com/navasmdc/MaterialDesignLibrary.git 106
git://github.com/JessYanCoding/MVPArms.git 107
git://github.com/nathanmarz/storm.git 108
git://github.com/81813780/AVLoadingIndicatorView.git 109
git://github.com/apache/incubator-druid.git 110
git://github.com/aosp-mirror/platform_frameworks_base.git 111
git://github.com/JessYanCoding/AndroidAutoSize.git 112
git://github.com/looly/hutool.git 113
git://github.com/chrisbanes/Android-PullToRefresh.git 114
git://github.com/google/guice.git 115
git://github.com/umano/AndroidSlidingUpPanel.git 116
git://github.com/xetorthio/jedis.git 117
git://github.com/material-components/material-components-android.git 118
git://github.com/Netflix/eureka.git 119
git://github.com/android-hacker/VirtualXposed.git 120
git://github.com/rzwitserloot/lombok.git 121
git://github.com/code4craft/webmagic.git 122
git://github.com/perwendel/spark.git 123
git://github.com/Netflix/zuul.git 124
git://github.com/pagehelper/Mybatis-PageHelper.git 125
git://github.com/medcl/elasticsearch-analysis-ik.git 126
git://github.com/wasabeef/glide-transformations.git 127
git://github.com/roughike/BottomBar.git 128
git://github.com/zhangdaiscott/jeecg-boot.git 129
git://github.com/google/auto.git 130
git://github.com/bilibili/DanmakuFlameMaster.git 131
git://github.com/Freelander/Android_Data.git 132
git://github.com/GoogleContainerTools/jib.git 133
git://github.com/clojure/clojure.git 134
git://github.com/googlesamples/easypermissions.git 135
git://github.com/codecentric/spring-boot-admin.git 136
git://github.com/react-native-community/react-native-camera.git 137
git://github.com/laobie/StatusBarUtil.git 138
git://github.com/koral--/android-gif-drawable.git 139
git://github.com/HannahMitt/HomeMirror.git 140
git://github.com/chrisbanes/cheesesquare.git 141
git://github.com/LuckSiege/PictureSelector.git 142
git://github.com/daniulive/SmarterStreaming.git 143
git://github.com/java-decompiler/jd-gui.git 144
git://github.com/didi/VirtualAPK.git 145
git://github.com/sqshq/piggymetrics.git 146
git://github.com/mission-peace/interview.git 147
git://github.com/square/javapoet.git 148
git://github.com/jhy/jsoup.git 149
git://github.com/gyf-dev/ImmersionBar.git 150
git://github.com/GcsSloop/AndroidNote.git 151
git://github.com/xkcoding/spring-boot-demo.git 152
git://github.com/dropwizard/dropwizard.git 153
git://github.com/apache/zookeeper.git 154
git://github.com/frank-lam/fullstack-tutorial.git 155
git://github.com/MyCATApache/Mycat-Server.git 156
git://github.com/google/agera.git 157
git://github.com/baomidou/mybatis-plus.git 158
git://github.com/janishar/mit-deep-learning-book-pdf.git 159
git://github.com/trello/RxLifecycle.git 160
git://github.com/lionsoul2014/ip2region.git 161
git://github.com/JakeWharton/ActionBarSherlock.git 162
git://github.com/hackware1993/MagicIndicator.git 163
git://github.com/neo4j/neo4j.git 164
git://github.com/kaushikgopal/RxJava-Android-Samples.git 165
git://github.com/square/dagger.git 166
git://github.com/JakeWharton/hugo.git 167
git://github.com/cymcsg/UltimateRecyclerView.git 168
git://github.com/Bearded-Hen/Android-Bootstrap.git 169
git://github.com/TeamNewPipe/NewPipe.git 170
git://github.com/apereo/cas.git 171
git://github.com/android/testing-samples.git 172
git://github.com/ben-manes/caffeine.git 173
git://github.com/hs-web/hsweb-framework.git 174
git://github.com/grpc/grpc-java.git 175
git://github.com/aritraroy/UltimateAndroidReference.git 176
git://github.com/Blankj/awesome-java-leetcode.git 177
git://github.com/geeeeeeeeek/WeChatLuckyMoney.git 178
git://github.com/paascloud/paascloud-master.git 179
git://github.com/antlr/antlr4.git 180
git://github.com/LitePalFramework/LitePal.git 181
git://github.com/dropwizard/metrics.git 182
git://github.com/pedant/sweet-alert-dialog.git 183
git://github.com/lecho/hellocharts-android.git 184
git://github.com/stanfordnlp/CoreNLP.git 185
git://github.com/hongyangAndroid/okhttputils.git 186
git://github.com/amitshekhariitbhu/Android-Debug-Database.git 187
git://github.com/hongyangAndroid/AndroidAutoLayout.git 188
git://github.com/OpenRefine/OpenRefine.git 189
git://github.com/zaproxy/zaproxy.git 190
git://github.com/Justson/AgentWeb.git 191
git://github.com/cats-oss/android-gpuimage.git 192
git://github.com/koush/AndroidAsync.git 193
git://github.com/facebook/litho.git 194
git://github.com/asLody/VirtualApp.git 195
git://github.com/shwenzhang/AndResGuard.git 196
git://github.com/DroidPluginTeam/DroidPlugin.git 197
git://github.com/vipshop/vjtools.git 198
git://github.com/swagger-api/swagger-core.git 199
git://github.com/koush/ion.git 200
git://github.com/facebook/buck.git 201
git://github.com/cymcsg/UltimateRecyclerView.git 202
git://github.com/Bearded-Hen/Android-Bootstrap.git 203
git://github.com/TeamNewPipe/NewPipe.git 204
git://github.com/apereo/cas.git 205
git://github.com/android/testing-samples.git 206
git://github.com/pxb1988/dex2jar.git 207
git://github.com/ben-manes/caffeine.git 208
git://github.com/hs-web/hsweb-framework.git 209
git://github.com/grpc/grpc-java.git 210
git://github.com/aritraroy/UltimateAndroidReference.git 211
git://github.com/Blankj/awesome-java-leetcode.git 212
git://github.com/geeeeeeeeek/WeChatLuckyMoney.git 213
git://github.com/paascloud/paascloud-master.git 214
git://github.com/antlr/antlr4.git 215
git://github.com/LitePalFramework/LitePal.git 216
git://github.com/ybq/Android-SpinKit.git 217
git://github.com/dropwizard/metrics.git 218
git://github.com/pedant/sweet-alert-dialog.git 219
git://github.com/lecho/hellocharts-android.git 220
git://github.com/stanfordnlp/CoreNLP.git 221
git://github.com/hongyangAndroid/okhttputils.git 222
git://github.com/amitshekhariitbhu/Android-Debug-Database.git 223
git://github.com/crazycodeboy/TakePhoto.git 224
git://github.com/hongyangAndroid/AndroidAutoLayout.git 225
git://github.com/OpenRefine/OpenRefine.git 226
git://github.com/zaproxy/zaproxy.git 227
git://github.com/Justson/AgentWeb.git 228
git://github.com/cats-oss/android-gpuimage.git 229
git://github.com/koush/AndroidAsync.git 230
git://github.com/ogaclejapan/SmartTabLayout.git 231
git://github.com/facebook/litho.git 232
git://github.com/asLody/VirtualApp.git 233
git://github.com/leolin310148/ShortcutBadger.git 234
git://github.com/shwenzhang/AndResGuard.git 235
git://github.com/firebase/quickstart-android.git 236
git://github.com/TooTallNate/Java-WebSocket.git 237
git://github.com/DroidPluginTeam/DroidPlugin.git 238
git://github.com/vipshop/vjtools.git 239
git://github.com/futuresimple/android-floating-action-button.git 240
git://github.com/swagger-api/swagger-core.git 241
git://github.com/google/physical-web.git 242
git://github.com/koush/ion.git 243
git://github.com/seaswalker/spring-analysis.git 244
git://github.com/Qihoo360/RePlugin.git 245
git://github.com/Activiti/Activiti.git 246
git://github.com/airbnb/epoxy.git 247
git://github.com/naman14/Timber.git 248
git://github.com/pedrovgs/EffectiveAndroidUI.git 249
git://github.com/yanzhenjie/AndPermission.git 250
git://github.com/google/android-classyshark.git 251
git://github.com/apache/storm.git 252
git://github.com/huanghaibin-dev/CalendarView.git 253
git://github.com/ikew0ng/SwipeBackLayout.git 254
git://github.com/rey5137/material.git 255
git://github.com/react-native-community/react-native-image-picker.git 256
git://github.com/rengwuxian/MaterialEditText.git 257
git://github.com/antoniolg/androidmvp.git 258
git://github.com/eclipse/che.git 259
git://github.com/davemorrissey/subsampling-scale-image-view.git 260
git://github.com/vinc3m1/RoundedImageView.git 261
git://github.com/singwhatiwanna/dynamic-load-apk.git 262
git://github.com/springside/springside4.git 263
git://github.com/jwtk/jjwt.git 264
git://github.com/square/moshi.git 265
git://github.com/elunez/eladmin.git 266
git://github.com/nhaarman/ListViewAnimations.git 267
git://github.com/JakeWharton/u2020.git 268
git://github.com/daimajia/NumberProgressBar.git 269
git://github.com/careercup/CtCI-6th-Edition.git 270
git://github.com/NLPchina/elasticsearch-sql.git 271
git://github.com/wyouflf/xUtils3.git 272
git://github.com/GrenderG/Toasty.git 273
git://github.com/apache/cassandra.git 274
git://github.com/google/j2objc.git 275
git://github.com/lihengming/spring-boot-api-project-seed.git 276
git://github.com/amlcurran/ShowcaseView.git 277
git://github.com/daimajia/AndroidImageSlider.git 278
git://github.com/Devlight/InfiniteCycleViewPager.git 279
git://github.com/Nightonke/BoomMenu.git 280
git://github.com/DuGuQiuBai/Java.git 281
git://github.com/Angel-ML/angel.git 282
git://github.com/elasticjob/elastic-job-lite.git 283
git://github.com/emilsjolander/StickyListHeaders.git 284
git://github.com/justauth/JustAuth.git 285
git://github.com/aa112901/remusic.git 286
git://github.com/MindorksOpenSource/android-interview-questions.git 287
git://github.com/smuyyh/BookReader.git 288
git://github.com/facebook/rebound.git 289
git://github.com/markzhai/AndroidPerformanceMonitor.git 290
git://github.com/evant/gradle-retrolambda.git 291
git://github.com/java-native-access/jna.git 292
git://github.com/dmytrodanylyk/circular-progress-button.git 293
git://github.com/alibaba/otter.git 294
git://github.com/jgilfelt/SystemBarTint.git 295
git://github.com/sockeqwe/mosby.git 296
git://github.com/prolificinteractive/material-calendarview.git 297
git://github.com/evernote/android-job.git 298
git://github.com/sparklemotion/nokogiri.git 299
git://github.com/barteksc/AndroidPdfViewer.git 300
git://github.com/flyway/flyway.git 301
git://github.com/lightbend/config.git 302
git://github.com/andkulikov/Transitions-Everywhere.git 303
git://github.com/google/cameraview.git 304
git://github.com/haifengl/smile.git 305
git://github.com/Ramotion/folding-cell-android.git 306
git://github.com/chentao0707/SimplifyReader.git 307
git://github.com/go-lang-plugin-org/go-lang-idea-plugin.git 308
git://github.com/saiwu-bigkoo/Android-ConvenientBanner.git 309
git://github.com/react-native-community/react-native-video.git 310
git://github.com/CameraKit/camerakit-android.git 311
git://github.com/wuhaoyu1990/MagicCamera.git 312
git://github.com/danielzeller/Depth-LIB-Android-.git 313
git://github.com/Vedenin/useful-java-links.git 314
git://github.com/JakeWharton/NineOldAndroids.git 315
git://github.com/h2oai/h2o-3.git 316
git://github.com/apache/zeppelin.git 317
git://github.com/hongyangAndroid/baseAdapter.git 318
git://github.com/Alluxio/alluxio.git 319
git://github.com/Exrick/xmall.git 320
git://github.com/MindorksOpenSource/from-java-to-kotlin.git 321
git://github.com/zo0r/react-native-push-notification.git 322
git://github.com/yanzhenjie/SwipeRecyclerView.git 323
git://github.com/mcxiaoke/android-volley.git 324
git://github.com/jdamcd/android-crop.git 325
git://github.com/goldze/MVVMHabit.git 326
git://github.com/rabbitmq/rabbitmq-tutorials.git 327
git://github.com/json-path/JsonPath.git 328
git://github.com/ximsfei/Android-skin-support.git 329
git://github.com/square/android-times-square.git 330
git://github.com/mrniko/netty-socketio.git 331
git://github.com/jfoenixadmin/JFoenix.git 332
git://github.com/wildfirechat/server.git 333
git://github.com/rest-assured/rest-assured.git 334
git://github.com/mcxiaoke/packer-ng-plugin.git 335
git://github.com/Flipboard/bottomsheet.git 336
git://github.com/TommyLemon/Android-ZBLibrary.git 337
git://github.com/alibaba/DataX.git 338
git://github.com/zhanghai/Douya.git 339
git://github.com/castorflex/SmoothProgressBar.git 340
git://github.com/aporter/coursera-android.git 341
git://github.com/JodaOrg/joda-time.git 342
git://github.com/wasabeef/Blurry.git 343
git://github.com/AndroidBootstrap/android-bootstrap.git 344
git://github.com/changmingxie/tcc-transaction.git 345
git://github.com/SonarSource/sonarqube.git 346
git://github.com/alibaba/dexposed.git 347
git://github.com/HotBitmapGG/bilibili-android-client.git 348
git://github.com/Karumi/Dexter.git 349
git://github.com/google/grafika.git 350
git://github.com/react-native-community/react-native-svg.git 351
git://github.com/spring-projects/spring-security.git 352
git://github.com/gedoor/MyBookshelf.git 353
git://github.com/apache/dubbo-spring-boot-project.git 354
git://github.com/hibernate/hibernate-orm.git 355
git://github.com/romandanylyk/PageIndicatorView.git 356
git://github.com/youlookwhat/CloudReader.git 357
git://github.com/springfox/springfox.git 358
git://github.com/jgilfelt/chuck.git 359
git://github.com/DingMouRen/LayoutManagerGroup.git 360
git://github.com/MindorksOpenSource/android-mvp-architecture.git 361
git://github.com/makovkastar/FloatingActionButton.git 362
git://github.com/JesusFreke/smali.git 363
git://github.com/apache/tomcat.git 364
git://github.com/Ashok-Varma/BottomNavigation.git 365
git://github.com/mybatis/generator.git 366
git://github.com/Yalantis/Phoenix.git 367
git://github.com/grantland/android-autofittextview.git 368
git://github.com/journeyapps/zxing-android-embedded.git 369
git://github.com/jeasonlzy/ImagePicker.git 370
git://github.com/OpenTSDB/opentsdb.git 371
git://github.com/rengwuxian/RxJavaSamples.git 372
git://github.com/Tencent/GT.git 373
git://github.com/OpenAPITools/openapi-generator.git 374
git://github.com/hugeterry/CoordinatorTabLayout.git 375
git://github.com/baoyachi/StepView.git 376
git://github.com/google/google-authenticator.git 377
git://github.com/bytedeco/javacv.git 378
git://github.com/graphql-java/graphql-java.git 379
git://github.com/jankotek/mapdb.git 380
git://github.com/rubensousa/ViewPagerCards.git 381
git://github.com/lenve/VBlog.git 382
git://github.com/crazycodeboy/react-native-splash-screen.git 383
git://github.com/Tencent/Shadow.git 384
git://github.com/danikula/AndroidVideoCache.git 385
git://github.com/dinuscxj/LoadingDrawable.git 386
git://github.com/ChadCSong/ShineButton.git 387
git://github.com/BoltsFramework/Bolts-Android.git 388
git://github.com/puniverse/quasar.git 389
git://github.com/huangyanbin/smartTable.git 390
git://github.com/Jacksgong/JKeyboardPanelSwitch.git 391
git://github.com/yasserg/crawler4j.git 392
git://github.com/robinhood/ticker.git 393
git://github.com/awangdev/LintCode.git 394
git://github.com/spring-projects/spring-petclinic.git 395
git://github.com/lcodecorex/TwinklingRefreshLayout.git 396
git://github.com/ZXZxin/ZXBlog.git 397
git://github.com/apache/jmeter.git 398
git://github.com/firebase/FirebaseUI-Android.git 399
git://github.com/li-xiaojun/XPopup.git 400
git://github.com/airbnb/airpal.git 401
git://github.com/JackyAndroid/AndroidChromium.git 402
git://github.com/Todd-Davies/ProgressWheel.git 403
git://github.com/TangoAgency/material-intro-screen.git 404
git://github.com/web3j/web3j.git 405
git://github.com/zaaach/CityPicker.git 406
git://github.com/runelite/runelite.git 407
git://github.com/glomadrian/Grav.git 408
git://github.com/jenkinsci/blueocean-plugin.git 409
git://github.com/aragozin/jvm-tools.git 410
git://github.com/pedrovgs/Algorithms.git 411
git://github.com/500px/500px-android-blur.git 412
git://github.com/networknt/light-4j.git 413
git://github.com/mihaip/dex-method-counts.git 414
git://github.com/immutables/immutables.git 415
git://github.com/google/hover.git 416
git://github.com/AweiLoveAndroid/CommonDevKnowledge.git 417
git://github.com/querydsl/querydsl.git 418
git://github.com/Meituan-Dianping/Leaf.git 419
git://github.com/harjot-oberai/MusicDNA.git 420
git://github.com/promeG/TinyPinyin.git 421
git://github.com/spockframework/spock.git 422
git://github.com/vert-x3/vertx-examples.git 423
git://github.com/johannilsson/android-pulltorefresh.git 424
git://github.com/jboss-javassist/javassist.git 425
git://github.com/nisrulz/sensey.git 426
git://github.com/Polidea/RxAndroidBle.git 427
git://github.com/lisawray/groupie.git 428
git://github.com/romainguy/ViewServer.git 429
git://github.com/javagrowing/JGrowing.git 430
git://github.com/NLPIR-team/NLPIR.git 431
git://github.com/stylefeng/Guns.git 432
git://github.com/sd6352051/NiftyDialogEffects.git 433
git://github.com/simple-android-framework/android_design_patterns_analysis.git 434
git://github.com/balysv/material-menu.git 435
git://github.com/huburt-Hu/NewbieGuide.git 436
git://github.com/JackyAndroid/AndroidTVLauncher.git 437
git://github.com/flowable/flowable-engine.git 438
git://github.com/amitshekhariitbhu/awesome-android-complete-reference.git 439
git://github.com/path/android-priority-jobqueue.git 440
git://github.com/chanjarster/weixin-java-tools.git 441
git://github.com/Comcast/FreeFlow.git 442
git://github.com/AbrahamCaiJin/CommonUtilLibrary.git 443
git://github.com/watabou/pixel-dungeon.git 444
git://github.com/JakeWharton/Telecine.git 445
git://github.com/r0adkll/Slidr.git 446
git://github.com/LuckyJayce/ViewPagerIndicator.git 447
git://github.com/deano2390/MaterialShowcaseView.git 448
git://github.com/citerus/dddsample-core.git 449
git://github.com/jiajunhui/PlayerBase.git 450
git://github.com/esoxjem/MovieGuide.git 451
git://github.com/iPaulPro/Android-ItemTouchHelper-Demo.git 452
git://github.com/ldoublem/LoadingView.git 453
git://github.com/facebook/device-year-class.git 454
git://github.com/apache/incubator-pinot.git 455
git://github.com/javaee-samples/javaee7-samples.git 456
git://github.com/M66B/NetGuard.git 457
git://github.com/jaydenxiao2016/AndroidFire.git 458
git://github.com/Red5/red5-server.git 459
git://github.com/spring-projects/spring-loaded.git 460
git://github.com/prontera/spring-cloud-rest-tcc.git 461
git://github.com/alibaba/transmittable-thread-local.git 462
git://github.com/szerhusenBC/jwt-spring-security-demo.git 463
git://github.com/florent37/ViewAnimator.git 464
git://github.com/MindorksOpenSource/PRDownloader.git 465
git://github.com/lenve/JavaEETest.git 466
git://github.com/getActivity/AndroidProject.git 467
git://github.com/Anuken/Mindustry.git 468
git://github.com/ata4/disunity.git 469
git://github.com/mock-server/mockserver.git 470
git://github.com/java8/Java8InAction.git 471
git://github.com/2dxgujun/AndroidTagGroup.git 472
git://github.com/yingLanNull/ShadowImageView.git 473
git://github.com/sockeqwe/AdapterDelegates.git 474
git://github.com/android-cjj/JJSearchViewAnim.git 475
git://github.com/fengjundev/Android-Skin-Loader.git 476
git://github.com/tyzlmjj/PagerBottomTabStrip.git 477
git://github.com/wildfly/wildfly.git 478
git://github.com/voldemort/voldemort.git 479
git://github.com/tronprotocol/java-tron.git 480
git://github.com/xmuSistone/CardSlidePanel.git 481
git://github.com/cSploit/android.git 482
git://github.com/qiujuer/Genius-Android.git 483
git://github.com/brianway/springmvc-mybatis-learning.git 484
git://github.com/twosigma/beakerx.git 485
git://github.com/Dimezis/BlurView.git 486
git://github.com/florent37/ShapeOfView.git 487
git://github.com/Netflix/conductor.git 488
git://github.com/AigeStudio/WheelPicker.git 489
git://github.com/Rukey7/MvpApp.git 490
git://github.com/JakeWharton/RxRelay.git 491
git://github.com/mxdldev/android-mvp-mvvm-flytour.git 492
git://github.com/elye/loaderviewlibrary.git 493
git://github.com/h2oai/h2o-2.git 494
git://github.com/theDazzler/droidicon.git 495
git://github.com/apache/dubbo-admin.git 496
git://github.com/markushi/android-ui.git 497
git://github.com/yqritc/RecyclerView-FlexibleDivider.git 498
git://github.com/pwittchen/ReactiveNetwork.git 499
git://github.com/igreenwood/SimpleCropView.git 500
git://github.com/firebase/FirebaseUI-Android.git 501
git://github.com/li-xiaojun/XPopup.git 502
git://github.com/CellularPrivacy/Android-IMSI-Catcher-Detector.git 503
git://github.com/MiguelCatalan/MaterialSearchView.git 504
git://github.com/bluelinelabs/Conductor.git 505
git://github.com/airbnb/DeepLinkDispatch.git 506
git://github.com/Manabu-GT/ExpandableTextView.git 507
git://github.com/qstumn/BadgeView.git 508
git://github.com/timehop/sticky-headers-recyclerview.git 509
git://github.com/ffay/lanproxy.git 510
git://github.com/nytimes/Store.git 511
git://github.com/xcltapestry/XCL-Charts.git 512
git://github.com/junit-team/junit5.git 513
git://github.com/vavr-io/vavr.git 514
git://github.com/tomakehurst/wiremock.git 515
git://github.com/gephi/gephi.git 516
git://github.com/rockerhieu/emojicon.git 517
git://github.com/ongakuer/CircleIndicator.git 518
git://github.com/johncarl81/parceler.git 519
git://github.com/apache/beam.git 520
git://github.com/amirzaidi/Launcher3.git 521
git://github.com/orhanobut/hawk.git 522
git://github.com/razerdp/BasePopup.git 523
git://github.com/luontola/retrolambda.git 524
git://github.com/bitcoinj/bitcoinj.git 525
git://github.com/cryptomator/cryptomator.git 526
git://github.com/baoyongzhang/SwipeMenuListView.git 527
git://github.com/apache/groovy.git 528
git://github.com/pentaho/pentaho-kettle.git 529
git://github.com/MinecraftForge/MinecraftForge.git 530
git://github.com/lsjwzh/RecyclerViewPager.git 531
git://github.com/cjlin1/libsvm.git 532
git://github.com/openhab/openhab1-addons.git 533
git://github.com/Jasonchenlijian/FastBle.git 534
git://github.com/litesuits/android-common.git 535
git://github.com/btraceio/btrace.git 536
git://github.com/tyrantgit/ExplosionField.git 537
git://github.com/yangfuhai/ASimpleCache.git 538
git://github.com/hazelcast/hazelcast.git 539
git://github.com/lzyzsd/CircleProgress.git 540
git://github.com/codeestX/GeekNews.git 541
git://github.com/ryanhoo/StylishMusicPlayer.git 542
git://github.com/sofastack/sofa-boot.git 543
git://github.com/xcc3641/SeeWeather.git 544
git://github.com/macrozheng/mall-learning.git 545
git://github.com/Meituan-Dianping/Robust.git 546
git://github.com/avast/android-butterknife-zelezny.git 547
git://github.com/stleary/JSON-java.git 548
git://github.com/quarkusio/quarkus.git 549
git://github.com/apache/incubator-heron.git 550
git://github.com/microsoft/malmo.git 551
git://github.com/dongjunkun/DropDownMenu.git 552
git://github.com/kikoso/android-stackblur.git 553
git://github.com/siacs/Conversations.git 554
git://github.com/reactive-streams/reactive-streams-jvm.git 555
git://github.com/Freeyourgadget/Gadgetbridge.git 556
git://github.com/Piasy/BigImageViewer.git 557
git://github.com/objectbox/objectbox-java.git 558
git://github.com/Atmosphere/atmosphere.git 559
git://github.com/yigit/android-priority-jobqueue.git 560
git://github.com/ivacf/archi.git 561
git://github.com/arimorty/floatingsearchview.git 562
git://github.com/dropbox/hackpad.git 563
git://github.com/alibaba/Tangram-Android.git 564
git://github.com/bilibili/MagicaSakura.git 565
git://github.com/AriaLyy/Aria.git 566
git://github.com/willowtreeapps/spruce-android.git 567
git://github.com/actorapp/actor-platform.git 568
git://github.com/techGay/v9porn.git 569
git://github.com/Netflix/ribbon.git 570
git://github.com/quartz-scheduler/quartz.git 571
git://github.com/andremion/Music-Player.git 572
git://github.com/apache/hbase.git 573
git://github.com/hustcc/JS-Sorting-Algorithm.git 574
git://github.com/brianway/java-learning.git 575
git://github.com/oldmanpushcart/greys-anatomy.git 576
git://github.com/databricks/learning-spark.git 577
git://github.com/sharish/ShimmerRecyclerView.git 578
git://github.com/auth0/java-jwt.git 579
git://github.com/davideas/FlexibleAdapter.git 580
git://github.com/chrisbanes/ActionBar-PullToRefresh.git 581
git://github.com/languagetool-org/languagetool.git 582
git://github.com/bluelinelabs/LoganSquare.git 583
git://github.com/tangqi92/Android-Tips.git 584
git://github.com/sunfusheng/MarqueeView.git 585
git://github.com/zzhoujay/RichText.git 586
git://github.com/bauerca/drag-sort-listview.git 587
git://github.com/testcontainers/testcontainers-java.git 588
git://github.com/luckybilly/CC.git 589
git://github.com/cglib/cglib.git 590
git://github.com/yangfuhai/afinal.git 591
git://github.com/shekhargulati/99-problems.git 592
git://github.com/alamkanak/Android-Week-View.git 593
git://github.com/yhaolpz/FloatWindow.git 594
git://github.com/lingochamp/okdownload.git 595
git://github.com/pengjianbo/GalleryFinal.git 596
git://github.com/spring-projects/spring-data-examples.git 597
git://github.com/micronaut-projects/micronaut-core.git 598
git://github.com/raphw/byte-buddy.git 599
git://github.com/alibaba/jvm-sandbox.git 600
git://github.com/uber/AutoDispose.git 601
git://github.com/nanchen2251/RxJava2Examples.git 602
git://github.com/qii/weiciyuan.git 603
git://github.com/JoanZapata/android-pdfview.git 604
git://github.com/bmelnychuk/AndroidTreeView.git 605
git://github.com/Nightonke/WoWoViewPager.git 606
git://github.com/SimonVT/android-menudrawer.git 607
git://github.com/yarolegovich/SlidingRootNav.git 608
git://github.com/JohnPersano/SuperToasts.git 609
git://github.com/Malinskiy/SuperRecyclerView.git 610
git://github.com/frohoff/ysoserial.git 611
git://github.com/linyiqun/DataMiningAlgorithm.git 612
git://github.com/liangfeidotme/MasteringAndroidDataBinding.git 613
git://github.com/ZHENFENG13/spring-boot-projects.git 614
git://github.com/Teevity/ice.git 615
git://github.com/bigbluebutton/bigbluebutton.git 616
git://github.com/pushtorefresh/storio.git 617
git://github.com/saulmm/CoordinatorBehaviorExample.git 618
git://github.com/kiegroup/drools.git 619
git://github.com/chennaione/sugar.git 620
git://github.com/lizhangqu/CoreLink.git 621
git://github.com/crate/crate.git 622
git://github.com/oguzbilgener/CircularFloatingActionMenu.git 623
git://github.com/cyrilmottier/GreenDroid.git 624
git://github.com/MagicMashRoom/SuperCalendar.git 625
git://github.com/RobotiumTech/robotium.git 626
git://github.com/natario1/CameraView.git 627
git://github.com/airbnb/airpal.git 628
git://github.com/TangoAgency/material-intro-screen.git 629
git://github.com/coobird/thumbnailator.git 630
git://github.com/web3j/web3j.git 631
git://github.com/zaaach/CityPicker.git 632
git://github.com/wenmingvs/AndroidProcess.git 633
git://github.com/runelite/runelite.git 634
git://github.com/crazyandcoder/citypicker.git 635
git://github.com/intuit/karate.git 636
git://github.com/AntennaPod/AntennaPod.git 637
git://github.com/guoguibing/librec.git 638
git://github.com/Nightonke/CoCoin.git 639
git://github.com/google/volley.git 640
git://github.com/google/binnavi.git 641
git://github.com/aragozin/jvm-tools.git 642
git://github.com/pedrovgs/Algorithms.git 643
git://github.com/undertow-io/undertow.git 644
git://github.com/ZieIony/Carbon.git 645
git://github.com/baidu/uid-generator.git 646
git://github.com/googlearchive/android-ConstraintLayoutExamples.git 647
git://github.com/networknt/light-4j.git 648
git://github.com/FinalTeam/RxGalleryFinal.git 649
git://github.com/ltsopensource/light-task-scheduler.git 650
git://github.com/CrawlScript/WebCollector.git 651
git://github.com/code4craft/tiny-spring.git 652
git://github.com/plantuml/plantuml.git 653
git://github.com/promeG/TinyPinyin.git 654
git://github.com/florent37/DiagonalLayout.git 655
git://github.com/spockframework/spock.git 656
git://github.com/vert-x3/vertx-examples.git 657
git://github.com/johannilsson/android-pulltorefresh.git 658
git://github.com/googlearchive/android-Camera2Basic.git 659
git://github.com/flavioarfaria/KenBurnsView.git 660
git://github.com/googlesamples/google-services.git 661
git://github.com/pchmn/MaterialChipsInput.git 662
git://github.com/LWJGL/lwjgl3.git 663
git://github.com/siyamed/android-shape-imageview.git 664
git://github.com/nisrulz/sensey.git 665
git://github.com/ethanhua/Skeleton.git 666
git://github.com/lisawray/groupie.git 667
git://github.com/aritraroy/PatternLockView.git 668
git://github.com/romainguy/ViewServer.git 669
git://github.com/huazhiyuan2008/RecyclerViewCardGallery.git 670
git://github.com/javagrowing/JGrowing.git 671
git://github.com/NLPIR-team/NLPIR.git 672
git://github.com/saulmm/Material-Movies.git 673
git://github.com/Cleveroad/SlidingTutorial-Android.git 674
git://github.com/stylefeng/Guns.git 675
git://github.com/sd6352051/NiftyDialogEffects.git 676
git://github.com/balysv/material-menu.git 677
git://github.com/huburt-Hu/NewbieGuide.git 678
git://github.com/zhoutaoo/SpringCloud.git 679
git://github.com/apache/kylin.git 680
git://github.com/ozodrukh/CircularReveal.git 681
git://github.com/githubwing/ZoomHeader.git 682
git://github.com/liuyubobobo/Play-with-Algorithms.git 683
git://github.com/path/android-priority-jobqueue.git 684
git://github.com/AbrahamCaiJin/CommonUtilLibrary.git 685
git://github.com/yuliskov/SmartYouTubeTV.git 686
git://github.com/dlew/joda-time-android.git 687
git://github.com/jjoe64/GraphView.git 688
git://github.com/pnikosis/materialish-progress.git 689
git://github.com/LuckyJayce/ViewPagerIndicator.git 690
git://github.com/deano2390/MaterialShowcaseView.git 691
git://github.com/citerus/dddsample-core.git 692
git://github.com/jiajunhui/PlayerBase.git 693
git://github.com/esoxjem/MovieGuide.git 694
git://github.com/ldoublem/LoadingView.git 695
git://github.com/facebook/device-year-class.git 696
git://github.com/debezium/debezium.git 697
git://github.com/Twitter4J/Twitter4J.git 698
git://github.com/apache/incubator-pinot.git 699
git://github.com/javaee-samples/javaee7-samples.git 700
git://github.com/mapstruct/mapstruct.git 701
git://github.com/soarcn/BottomSheet.git 702
git://github.com/jMonkeyEngine/jmonkeyengine.git 703
git://github.com/LaiFeng-Android/SopCastComponent.git 704
git://github.com/CJT2325/CameraView.git 705
git://github.com/stormzhang/9GAG.git 706
git://github.com/square/mortar.git 707
git://github.com/android-cjj/BeautifulRefreshLayout.git 708
git://github.com/avast/android-styled-dialogs.git 709
git://github.com/jeasonlzy/NineGridView.git 710
git://github.com/traccar/traccar.git 711
git://github.com/xfumihiro/ViewInspector.git 712
git://github.com/dmilicic/Android-Clean-Boilerplate.git 713
git://github.com/team-supercharge/ShimmerLayout.git 714
git://github.com/eclipse/openj9.git 715
git://github.com/liuyangming/ByteTCC.git 716
git://github.com/square/keywhiz.git 717
git://github.com/Naoki2015/CircleDemo.git 718
git://github.com/spring-io/sagan.git 719
git://github.com/google/wycheproof.git 720
git://github.com/lingcimi/jjdxm_ijkplayer.git 721
git://github.com/JingYeoh/FragmentRigger.git 722
git://github.com/TheFinestArtist/FinestWebView-Android.git 723
git://github.com/nanchen2251/CompressHelper.git 724
git://github.com/Mojang/brigadier.git 725
git://github.com/MikeOrtiz/TouchImageView.git 726
git://github.com/android-cjj/Android-MaterialRefreshLayout.git 727
git://github.com/dingjikerbo/Android-BluetoothKit.git 728
git://github.com/jOOQ/jOOR.git 729
git://github.com/reark/reark.git 730
git://github.com/AlexLiuSheng/CheckVersionLib.git 731
git://github.com/mplushnikov/lombok-intellij-plugin.git 732
git://github.com/mcharmas/Android-ReactiveLocation.git 733
git://github.com/jgilfelt/android-sqlite-asset-helper.git 734
git://github.com/JSQLParser/JSqlParser.git 735
git://github.com/spring-cloud/spring-cloud-gateway.git 736
git://github.com/Heeexy/SpringBoot-Shiro-Vue.git 737
git://github.com/zhangkaitao/es.git 738
git://github.com/wendux/DSBridge-Android.git 739
git://github.com/gjiazhe/PanoramaImageView.git 740
git://github.com/Devlight/NavigationTabStrip.git 741
git://github.com/fython/MaterialStepperView.git 742
git://github.com/steelkiwi/cropiwa.git 743
git://github.com/balsikandar/Android-Studio-Plugins.git 744
git://github.com/niorgai/StatusBarCompat.git 745
git://github.com/rmtheis/android-ocr.git 746
git://github.com/mcharmas/android-parcelable-intellij-plugin.git 747
git://github.com/gongwen/MarqueeViewLibrary.git 748
git://github.com/h2database/h2database.git 749
git://github.com/pinguo-zhouwei/MZBannerView.git 750
git://github.com/cymcsg/UltimateAndroid.git 751
git://github.com/yanzhenjie/AndServer.git 752
git://github.com/iMeiji/Toutiao.git 753
git://github.com/addthis/stream-lib.git 754
git://github.com/ethereum/ethereumj.git 755
git://github.com/Netflix/curator.git 756
git://github.com/zalando/zalenium.git 757
git://github.com/JavaNoober/BackgroundLibrary.git 758
git://github.com/cucumber/cucumber-jvm.git 759
git://github.com/zzz40500/AndroidSweetSheet.git 760
git://github.com/Yalantis/Horizon.git 761
git://github.com/react-native-community/react-native-share.git 762
git://github.com/Jude95/EasyRecyclerView.git 763
git://github.com/tdebatty/java-string-similarity.git 764
git://github.com/igniterealtime/Openfire.git 765
git://github.com/bonnyfone/vectalign.git 766
git://github.com/micrometer-metrics/micrometer.git 767
git://github.com/AndroidKnife/RxBus.git 768
git://github.com/xubinux/xbin-store.git 769
git://github.com/alexvasilkov/GestureViews.git 770
git://github.com/seiginonakama/BlockCanaryEx.git 771
git://github.com/elevenetc/TextSurface.git 772
git://github.com/konmik/nucleus.git 773
git://github.com/jeremylong/DependencyCheck.git 774
git://github.com/Genymobile/gnirehtet.git 775
git://github.com/nitaliano/react-native-mapbox-gl.git 776
git://github.com/spring-projects/spring-data-elasticsearch.git 777
git://github.com/l123456789jy/Lazy.git 778
git://github.com/Tencent/VasDolly.git 779
git://github.com/hansonwang99/Spring-Boot-In-Action.git 780
git://github.com/android-notes/Cockroach.git 781
git://github.com/tjerkw/Android-SlideExpandableListView.git 782
git://github.com/killbill/killbill.git 783
git://github.com/PomepuyN/BlurEffectForAndroidDesign.git 784
git://github.com/aistrate/AlgorithmsSedgewick.git 785
git://github.com/alibaba/jetcache.git 786
git://github.com/ElderDrivers/EdXposed.git 787
git://github.com/ApmeM/android-flowlayout.git 788
git://github.com/baoyongzhang/android-PullRefreshLayout.git 789
git://github.com/libgdx/packr.git 790
git://github.com/apollographql/apollo-android.git 791
git://github.com/Azoft/CarouselLayoutManager.git 792
git://github.com/Hitomis/transferee.git 793
git://github.com/Ramotion/cardslider-android.git 794
git://github.com/KieronQuinn/PersistentSearch.git 795
git://github.com/janishar/PlaceHolderView.git 796
git://github.com/KingJA/LoadSir.git 797
git://github.com/Froussios/Intro-To-RxJava.git 798
git://github.com/xmuSistone/AndroidPileLayout.git 799
git://github.com/Qihoo360/ArgusAPM.git 800
git://github.com/thymeleaf/thymeleaf.git 801
git://github.com/codeestX/ENViews.git 802
git://github.com/bingoogolapple/BGAPhotoPicker-Android.git 803
git://github.com/iPaulPro/aFileChooser.git 804
git://github.com/florent37/ExpansionPanel.git 805
git://github.com/qunarcorp/bistoury.git 806
git://github.com/dlazaro66/QRCodeReaderView.git 807
git://github.com/wangchenyan/ponymusic.git 808
git://github.com/cachapa/ExpandableLayout.git 809
git://github.com/Tencent/TubeMQ.git 810
git://github.com/openzipkin/brave.git 811
git://github.com/zhangdaiscott/jeecg.git 812
git://github.com/FasterXML/jackson-core.git 813
git://github.com/qdrzwd/VideoRecorder.git 814
git://github.com/czy1121/update.git 815
git://github.com/medyo/Fancybuttons.git 816
git://github.com/google/jimfs.git 817
git://github.com/corretto/corretto-8.git 818
git://github.com/jcoleman/tomcat-redis-session-manager.git 819
git://github.com/felipecsl/AsymmetricGridView.git 820
git://github.com/spring-projects/spring-integration-samples.git 821
git://github.com/biezhi/wechat-api.git 822
git://github.com/gitblit/gitblit.git 823
git://github.com/boycy815/PinchImageView.git 824
git://github.com/videlalvaro/gifsockets.git 825
git://github.com/andOTP/andOTP.git 826
git://github.com/stephentuso/welcome-android.git 827
git://github.com/dmytrodanylyk/shadow-layout.git 828
git://github.com/tumblr/Backboard.git 829
git://github.com/oracle/helidon.git 830
git://github.com/parse-community/Parse-SDK-Android.git 831
git://github.com/bethrobson/Head-First-Design-Patterns.git 832
git://github.com/redsolution/xabber-android.git 833
git://github.com/eluleci/FlatUI.git 834
git://github.com/Athou/commafeed.git 835
git://github.com/joel-costigliola/assertj-core.git 836
git://github.com/sucese/android-interview-guide.git 837
git://github.com/widdix/aws-cf-templates.git 838
git://github.com/OryxProject/oryx.git 839
git://github.com/apache/geode.git 840
git://github.com/maurycyw/StaggeredGridView.git 841
git://github.com/dodola/HotFix.git 842
git://github.com/athkalia/Just-Another-Android-App.git 843
git://github.com/LinShunKang/MyPerf4J.git 844
git://github.com/eclipse/paho.mqtt.android.git 845
git://github.com/Yalantis/Taurus.git 846
git://github.com/ikarus23/MifareClassicTool.git 847
git://github.com/nkzawa/socket.io-android-chat.git 848
git://github.com/HdrHistogram/HdrHistogram.git 849
git://github.com/remkop/picocli.git 850
git://github.com/Trinea/android-auto-scroll-view-pager.git 851
git://github.com/DingMouRen/PaletteImageView.git 852
git://github.com/blynkkk/blynk-server.git 853
git://github.com/boylegu/SpringBoot-vue.git 854
git://github.com/ImmortalZ/TransitionHelper.git 855
git://github.com/frogermcs/LikeAnimation.git 856
git://github.com/Tibolte/ElasticDownload.git 857
git://github.com/rubenlagus/TelegramBots.git 858
git://github.com/soabase/exhibitor.git 859
git://github.com/geometer/FBReaderJ.git 860
git://github.com/Kelin-Hong/MVVMLight.git 861
git://github.com/kymjs/TheMVP.git 862
git://github.com/wasabeef/picasso-transformations.git 863
git://github.com/dexafree/MaterialList.git 864
git://github.com/kanytu/android-parallax-recyclerview.git 865
git://github.com/stepstone-tech/android-material-stepper.git 866
git://github.com/wuxudong/react-native-charts-wrapper.git 867
git://github.com/apache/activemq.git 868
git://github.com/mancj/SlideUp-Android.git 869
git://github.com/react-native-community/react-native-google-signin.git 870
git://github.com/daimajia/AnimeTaste.git 871
git://github.com/deeplearning4j/nd4j.git 872
git://github.com/inmite/android-selector-chapek.git 873
git://github.com/robovm/robovm.git 874
git://github.com/baichengzhou/SpringMVC-Mybatis-Shiro-redis-0.2.git 875
git://github.com/Cutta/GifView.git 876
git://github.com/EhsanTang/ApiManager.git 877
git://github.com/fishercoder1534/Leetcode.git 878
git://github.com/sarxos/webcam-capture.git 879
git://github.com/elastic/elasticsearch-hadoop.git 880
git://github.com/xiaojinzi123/Component.git 881
git://github.com/alibaba/yugong.git 882
git://github.com/internetarchive/heritrix3.git 883
git://github.com/dersoncheng/MultipleTheme.git 884
git://github.com/mayubao/Android-Pay.git 885
git://github.com/iReaderAndroid/X2C.git 886
git://github.com/spotbugs/spotbugs.git 887
git://github.com/neokree/MaterialNavigationDrawer.git 888
git://github.com/DozerMapper/dozer.git 889
git://github.com/AAkira/ExpandableLayout.git 890
git://github.com/xwjie/PLMCodeTemplate.git 891
git://github.com/jOOQ/jOOL.git 892
git://github.com/caiyonglong/MusicLake.git 893
git://github.com/SpringForAll/spring-boot-starter-swagger.git 894
git://github.com/Q42/AndroidScrollingImageView.git 895
git://github.com/square/assertj-android.git 896
git://github.com/nextcloud/android.git 897
git://github.com/meituan/WMRouter.git 898
git://github.com/Qihoo360/XLearning.git 899
git://github.com/omadahealth/LolliPin.git 900
git://github.com/android-notes/Cockroach.git 901
git://github.com/tjerkw/Android-SlideExpandableListView.git 902
git://github.com/killbill/killbill.git 903
git://github.com/http-kit/http-kit.git 904
git://github.com/PomepuyN/BlurEffectForAndroidDesign.git 905
git://github.com/linkedin/rest.li.git 906
git://github.com/alibaba/jetcache.git 907
git://github.com/ApmeM/android-flowlayout.git 908
git://github.com/baoyongzhang/android-PullRefreshLayout.git 909
git://github.com/libgdx/packr.git 910
git://github.com/apollographql/apollo-android.git 911
git://github.com/nex3z/FlowLayout.git 912
git://github.com/Azoft/CarouselLayoutManager.git 913
git://github.com/liyiorg/weixin-popular.git 914
git://github.com/Hitomis/transferee.git 915
git://github.com/Ramotion/cardslider-android.git 916
git://github.com/KieronQuinn/PersistentSearch.git 917
git://github.com/KingJA/LoadSir.git 918
git://github.com/zmxv/react-native-sound.git 919
git://github.com/tvbarthel/BlurDialogFragment.git 920
git://github.com/xmuSistone/AndroidPileLayout.git 921
git://github.com/dueeeke/DKVideoPlayer.git 922
git://github.com/yadav-rahul/TastyToast.git 923
git://github.com/harjot-oberai/MaterialShadows.git 924
git://github.com/HeZaiJin/SlantedTextView.git 925
git://github.com/XunMengWinter/CircularAnim.git 926
git://github.com/Kyson/AndroidGodEye.git 927
git://github.com/Cleveroad/FanLayoutManager.git 928
git://github.com/VaughnVernon/IDDD_Samples.git 929
git://github.com/jtablesaw/tablesaw.git 930
git://github.com/plattysoft/Leonids.git 931
git://github.com/mybatis/spring.git 932
git://github.com/bingoogolapple/BGASwipeBackLayout-Android.git 933
git://github.com/novoda/android-demos.git 934
git://github.com/federicoiosue/Omni-Notes.git 935
git://github.com/kymjs/KJFrameForAndroid.git 936
git://github.com/timusus/Shuttle.git 937
git://github.com/M66B/XPrivacy.git 938
git://github.com/zhanghai/MaterialProgressBar.git 939
git://github.com/fqrouter/fqrouter.git 940
git://github.com/fanrunqi/MaterialLogin.git 941
git://github.com/google/truth.git 942
git://github.com/apache/maven.git 943
git://github.com/romainpiel/Shimmer-android.git 944
git://github.com/QNJR-GROUP/EasyTransaction.git 945
git://github.com/Swagger2Markup/swagger2markup.git 946
git://github.com/zcweng/SwitchButton.git 947
git://github.com/alibaba/dubbo-spring-boot-starter.git 948
git://github.com/gre/gl-react-native-v2.git 949
git://github.com/loopeer/CardStackView.git 950
git://github.com/mqzhangw/JIMU.git 951
git://github.com/white-cat/ThinkAndroid.git 952
git://github.com/iqiyi/Andromeda.git 953
git://github.com/Rajawali/Rajawali.git 954
git://github.com/spotify/dockerfile-maven.git 955
git://github.com/google/santa-tracker-android.git 956
git://github.com/apache/curator.git 957
git://github.com/qunarcorp/qmq.git 958
git://github.com/Bukkit/Bukkit.git 959
git://github.com/liquibase/liquibase.git 960
git://github.com/j-easy/easy-rules.git 961
git://github.com/lendylongli/qianghongbao.git 962
git://github.com/awsdocs/aws-doc-sdk-examples.git 963
git://github.com/udacity/ud851-Exercises.git 964
git://github.com/Kelin-Hong/ScrollablePanel.git 965
git://github.com/Muddz/StyleableToast.git 966
git://github.com/elvishew/xLog.git 967
git://github.com/terrakok/Cicerone.git 968
git://github.com/bitcoin-wallet/bitcoin-wallet.git 969
git://github.com/JorgeCastilloPrz/AndroidFillableLoaders.git 970
git://github.com/Wizcorp/phonegap-facebook-plugin.git 971
git://github.com/OpenHFT/Chronicle-Queue.git 972
git://github.com/KunMinX/Linkage-RecyclerView.git 973
git://github.com/JsonChao/Awesome-WanAndroid.git 974
git://github.com/udacity/ud851-Sunshine.git 975
git://github.com/Fuzion24/JustTrustMe.git 976
git://github.com/xuuhaoo/OkSocket.git 977
git://github.com/flavienlaurent/datetimepicker.git 978
git://github.com/codingXiaxw/seckill.git 979
git://github.com/BeesX/BeesAndroid.git 980
git://github.com/hitherejoe/Android-Boilerplate.git 981
git://github.com/qs-lll/ExpandingPager.git 982
git://github.com/detro/ghostdriver.git 983
git://github.com/Karumi/Rosie.git 984
git://github.com/ICT-BDA/EasyML.git 985
git://github.com/AdoptOpenJDK/jitwatch.git 986
git://github.com/Zhaoss/WeiXinRecordedDemo.git 987
git://github.com/searchbox-io/Jest.git 988
git://github.com/AxonFramework/AxonFramework.git 989
git://github.com/recruit-lifestyle/WaveSwipeRefreshLayout.git 990
git://github.com/twitter/commons.git 991
git://github.com/graknlabs/grakn.git 992
git://github.com/zhangxd1989/spring-boot-cloud.git 993
git://github.com/ninjaframework/ninja.git 994
git://github.com/googlesamples/android-testing-templates.git 995
git://github.com/armcha/Space-Navigation-View.git 996
git://github.com/wingjay/jianshi.git 997
git://github.com/andpor/react-native-sqlite-storage.git 998
git://github.com/jindrapetrik/jpexs-decompiler.git 999
git://github.com/spring-cloud/spring-cloud-kubernetes.git 1000
